2018-08-14 22:15:09
Metodo:EnviarMensajes
Mensaje:error: no existen contáctos para enviar mensajes!
***************************************
2018-08-14 22:35:32
Metodo:EnviarMensajes
Mensaje:error: El servidor SMTP requiere una conexión segura o el cliente no se autenticó. La respuesta del servidor fue: 5.5.1 Authentication Required. Learn more at
***************************************
2018-08-14 22:38:41
Metodo:EnviarMensajes
Mensaje:error: no existen contáctos para enviar mensajes!
***************************************
2018-08-14 22:44:37
Metodo:EnviarMensajes
Mensaje:error: El servidor SMTP requiere una conexión segura o el cliente no se autenticó. La respuesta del servidor fue: 5.5.1 Authentication Required. Learn more at
***************************************
